pLECs,J774,Hypoxia,Day,Well,Value
TRUE,FALSE,FALSE,1,1,0.369004
TRUE,FALSE,FALSE,1,1,0.366096
TRUE,FALSE,FALSE,1,1,0.360638
TRUE,FALSE,FALSE,1,2,0.372042
TRUE,FALSE,FALSE,1,2,0.407235
TRUE,FALSE,FALSE,1,2,0.407388
TRUE,FALSE,FALSE,2,3,0.420762
TRUE,FALSE,FALSE,2,3,0.380098
TRUE,FALSE,FALSE,2,3,0.398613
TRUE,FALSE,FALSE,2,4,0.349154
TRUE,FALSE,FALSE,2,4,0.353443
TRUE,FALSE,FALSE,2,4,0.356263
TRUE,FALSE,TRUE,1,5,0.256053
TRUE,FALSE,TRUE,1,5,0.249106
TRUE,FALSE,TRUE,1,5,0.232472
TRUE,FALSE,TRUE,1,6,0.230437
TRUE,FALSE,TRUE,1,6,0.253592
TRUE,FALSE,TRUE,1,6,0.264446
TRUE,FALSE,TRUE,2,7,0.241401
TRUE,FALSE,TRUE,2,7,0.269988
TRUE,FALSE,TRUE,2,7,0.26349
TRUE,FALSE,TRUE,2,8,0.236858
TRUE,FALSE,TRUE,2,8,0.261272
TRUE,FALSE,TRUE,2,8,0.236353
FALSE,TRUE,FALSE,1,9,0.370107
FALSE,TRUE,FALSE,1,9,0.359329
FALSE,TRUE,FALSE,1,9,0.359596
FALSE,TRUE,FALSE,1,10,0.388409
FALSE,TRUE,FALSE,1,10,0.378138
FALSE,TRUE,FALSE,1,10,0.374054
FALSE,TRUE,FALSE,2,11,0.38533
FALSE,TRUE,FALSE,2,11,0.399219
FALSE,TRUE,FALSE,2,11,0.387953
FALSE,TRUE,FALSE,2,12,0.3985
FALSE,TRUE,FALSE,2,12,0.373089
FALSE,TRUE,FALSE,2,12,0.394444
FALSE,TRUE,TRUE,1,13,0.292232
FALSE,TRUE,TRUE,1,13,0.339793
FALSE,TRUE,TRUE,1,13,0.27486
FALSE,TRUE,TRUE,1,14,0.271984
FALSE,TRUE,TRUE,1,14,0.240024
FALSE,TRUE,TRUE,1,14,0.301796
FALSE,TRUE,TRUE,2,15,0.290433
FALSE,TRUE,TRUE,2,15,0.279826
FALSE,TRUE,TRUE,2,15,0.284845
FALSE,TRUE,TRUE,2,16,0.236181
FALSE,TRUE,TRUE,2,16,0.27673
FALSE,TRUE,TRUE,2,16,0.277233
TRUE,TRUE,FALSE,1,17,0.497854
TRUE,TRUE,FALSE,1,17,0.490063
TRUE,TRUE,FALSE,1,17,0.471785
TRUE,TRUE,FALSE,1,18,0.453594
TRUE,TRUE,FALSE,1,18,0.4667
TRUE,TRUE,FALSE,1,18,0.476146
TRUE,TRUE,FALSE,2,19,0.46831
TRUE,TRUE,FALSE,2,19,0.442421
TRUE,TRUE,FALSE,2,19,0.46328
TRUE,TRUE,FALSE,2,20,0.461426
TRUE,TRUE,FALSE,2,20,0.425246
TRUE,TRUE,FALSE,2,20,0.396588
TRUE,TRUE,TRUE,1,21,0.377339
TRUE,TRUE,TRUE,1,21,0.359708
TRUE,TRUE,TRUE,1,21,0.366846
TRUE,TRUE,TRUE,1,22,0.43302
TRUE,TRUE,TRUE,1,22,0.377619
TRUE,TRUE,TRUE,1,22,0.40854
TRUE,TRUE,TRUE,2,23,0.395833
TRUE,TRUE,TRUE,2,23,0.391654
TRUE,TRUE,TRUE,2,23,0.391671
TRUE,TRUE,TRUE,2,24,0.382035
TRUE,TRUE,TRUE,2,24,0.379569
TRUE,TRUE,TRUE,2,24,0.346398
FALSE,FALSE,FALSE,1,25,0.010673235
FALSE,FALSE,FALSE,1,25,0.002382844
FALSE,FALSE,FALSE,1,26,0.012378426
FALSE,FALSE,FALSE,1,26,0.004
FALSE,FALSE,FALSE,1,26,0.008097166
FALSE,FALSE,FALSE,1,27,0.016733068
FALSE,FALSE,FALSE,1,27,0.006349206
FALSE,FALSE,FALSE,1,27,0.004389173
FALSE,FALSE,TRUE,1,28,0.002296211
FALSE,FALSE,TRUE,1,28,0.004955401
FALSE,FALSE,TRUE,1,28,0.002650177
FALSE,FALSE,TRUE,1,29,0.000907441
FALSE,FALSE,TRUE,1,29,0.003539823
FALSE,FALSE,TRUE,1,29,0.009578544
FALSE,FALSE,TRUE,1,30,0.002721088
FALSE,FALSE,TRUE,1,30,0.005084746
FALSE,FALSE,TRUE,1,30,0.007739938
TRUE,FALSE,FALSE,1,31,0.415292354
TRUE,FALSE,FALSE,1,31,0.340540541
TRUE,FALSE,FALSE,1,31,0.370614035
TRUE,FALSE,FALSE,1,32,0.277777778
TRUE,FALSE,FALSE,1,32,0.233110616
TRUE,FALSE,FALSE,1,32,0.25487013
TRUE,FALSE,FALSE,1,33,0.269808743
TRUE,FALSE,FALSE,1,33,0.318565401
TRUE,FALSE,FALSE,1,33,0.320699708
TRUE,FALSE,TRUE,1,34,0.052245646
TRUE,FALSE,TRUE,1,34,0.090051458
TRUE,FALSE,TRUE,1,34,0.087821044
TRUE,FALSE,TRUE,1,35,0.186456401
TRUE,FALSE,TRUE,1,35,0.221052632
TRUE,FALSE,TRUE,1,35,0.21133412
TRUE,FALSE,TRUE,1,36,0.155752212
TRUE,FALSE,TRUE,1,36,0.193097781
TRUE,FALSE,TRUE,1,36,0.195
TRUE,FALSE,FALSE,2,37,0.052374302
TRUE,FALSE,FALSE,2,37,0.106397306
TRUE,FALSE,FALSE,2,37,0.117406143
TRUE,FALSE,FALSE,2,38,0.085250338
TRUE,FALSE,FALSE,2,38,0.133557047
TRUE,FALSE,FALSE,2,38,0.179581796
TRUE,FALSE,FALSE,2,39,0.115487316
TRUE,FALSE,FALSE,2,39,0.100883652
TRUE,FALSE,FALSE,2,39,0.142667551
FALSE,FALSE,FALSE,2,40,0
FALSE,FALSE,FALSE,2,40,0.002255639
FALSE,FALSE,FALSE,2,40,0.003808073
FALSE,FALSE,FALSE,2,41,0
FALSE,FALSE,FALSE,2,41,0.002207506
FALSE,FALSE,FALSE,2,41,0
FALSE,FALSE,FALSE,2,42,0.00281294
FALSE,FALSE,FALSE,2,42,0.002175489
FALSE,FALSE,FALSE,2,42,0.00723589
TRUE,FALSE,TRUE,2,43,0.000796813
TRUE,FALSE,TRUE,2,43,0.005327245
TRUE,FALSE,TRUE,2,43,0.001809955
TRUE,FALSE,TRUE,2,44,0.003174603
TRUE,FALSE,TRUE,2,44,0.000809061
TRUE,FALSE,TRUE,2,44,0.012861736
TRUE,FALSE,TRUE,2,45,0
TRUE,FALSE,TRUE,2,45,0.020322355
TRUE,FALSE,TRUE,2,45,0.037195994
FALSE,FALSE,TRUE,2,46,0
FALSE,FALSE,TRUE,2,46,0
FALSE,FALSE,TRUE,2,46,0.002973978
FALSE,FALSE,TRUE,2,47,0
FALSE,FALSE,TRUE,2,47,0
FALSE,FALSE,TRUE,2,47,0
FALSE,FALSE,TRUE,2,48,0
FALSE,FALSE,TRUE,2,48,0
FALSE,FALSE,TRUE,2,48,0