ECT,Endothelial,DMOG,Day,Well,Value
pLEC,TRUE,FALSE,1,1,0.152091255
pLEC,TRUE,FALSE,1,1,0.157216495
pLEC,TRUE,FALSE,1,1,0.16043956
pLEC,TRUE,FALSE,1,2,0.069148936
pLEC,TRUE,FALSE,1,2,0.111979167
pLEC,TRUE,FALSE,1,2,0.12
pLEC,TRUE,FALSE,1,3,0.110769231
pLEC,TRUE,FALSE,1,3,0.102702703
pLEC,TRUE,FALSE,1,3,0.083044983
pLEC,TRUE,TRUE,1,4,0.069506726
pLEC,TRUE,TRUE,1,4,0.06097561
pLEC,TRUE,TRUE,1,4,0.128378378
pLEC,TRUE,TRUE,1,5,0.121856867
pLEC,TRUE,TRUE,1,5,0.183098592
pLEC,TRUE,TRUE,1,5,0.128140704
pLEC,TRUE,TRUE,1,6,0.036745407
pLEC,TRUE,TRUE,1,6,0.065116279
pLEC,TRUE,TRUE,1,6,0.093406593
pLEC,FALSE,FALSE,1,7,0
pLEC,FALSE,FALSE,1,7,0
pLEC,FALSE,FALSE,1,7,0
pLEC,FALSE,FALSE,1,8,0
pLEC,FALSE,FALSE,1,8,0
pLEC,FALSE,FALSE,1,8,0
pLEC,FALSE,FALSE,1,9,0
pLEC,FALSE,FALSE,1,9,0
pLEC,FALSE,FALSE,1,9,0
pLEC,FALSE,TRUE,1,10,0
pLEC,FALSE,TRUE,1,10,0.001692047
pLEC,FALSE,TRUE,1,10,0.007920792
pLEC,FALSE,TRUE,1,11,0.001908397
pLEC,FALSE,TRUE,1,11,0
pLEC,FALSE,TRUE,1,11,0
pLEC,FALSE,TRUE,1,12,0.002298851
pLEC,FALSE,TRUE,1,12,0
pLEC,FALSE,TRUE,1,12,0.00212766
pLEC,TRUE,TRUE,2,13,0.255902999
pLEC,TRUE,TRUE,2,13,0.234868421
pLEC,TRUE,TRUE,2,13,0.116582187
pLEC,TRUE,TRUE,2,14,0.168359942
pLEC,TRUE,TRUE,2,14,0.223335719
pLEC,TRUE,TRUE,2,14,0.281605351
pLEC,TRUE,TRUE,2,15,0.163636364
pLEC,TRUE,TRUE,2,15,0.209445585
pLEC,TRUE,TRUE,2,15,0.159348442
pLEC,FALSE,TRUE,2,16,0.013209013
pLEC,FALSE,TRUE,2,16,0.019669552
pLEC,FALSE,TRUE,2,16,0.014404852
pLEC,FALSE,TRUE,2,17,0.018882769
pLEC,FALSE,TRUE,2,17,0.054451803
pLEC,FALSE,TRUE,2,17,0.026294821
pLEC,FALSE,TRUE,2,17,0.026637869
pLEC,FALSE,TRUE,2,18,0.062265566
pLEC,FALSE,TRUE,2,18,0.036568214
pLEC,TRUE,FALSE,2,18,0.108333333
pLEC,TRUE,FALSE,2,19,0.158105404
pLEC,TRUE,FALSE,2,19,0.169398907
pLEC,TRUE,FALSE,2,19,0.012077295
pLEC,TRUE,FALSE,2,20,0.109331476
pLEC,TRUE,FALSE,2,20,0.179259259
pLEC,TRUE,FALSE,2,20,0.024666667
pLEC,TRUE,FALSE,2,21,0.101784534
pLEC,TRUE,FALSE,2,21,0.066031314
pLEC,FALSE,FALSE,2,21,0.003687316
pLEC,FALSE,FALSE,2,22,0.010810811
pLEC,FALSE,FALSE,2,22,0.003147128
pLEC,FALSE,FALSE,2,22,0
pLEC,FALSE,FALSE,2,23,0.000744602
pLEC,FALSE,FALSE,2,23,0
pLEC,FALSE,FALSE,2,23,0
pLEC,FALSE,FALSE,2,24,0
pLEC,FALSE,FALSE,2,24,0.001480385
pLEC,TRUE,FALSE,2,24,0.215552524
pLEC,TRUE,FALSE,3,25,0.217122683
pLEC,TRUE,FALSE,3,25,0.186823992
pLEC,TRUE,FALSE,3,25,0.228387097
pLEC,TRUE,FALSE,3,26,0.246153846
pLEC,TRUE,FALSE,3,26,0.205013429
pLEC,TRUE,FALSE,3,26,0.104355717
pLEC,TRUE,FALSE,3,27,0.090277778
pLEC,TRUE,FALSE,3,27,0.099437148
pLEC,TRUE,TRUE,3,27,0.125615764
pLEC,TRUE,TRUE,3,28,0.106430155
pLEC,TRUE,TRUE,3,28,0.090545939
pLEC,TRUE,TRUE,3,28,0.059031877
pLEC,TRUE,TRUE,3,29,0.084745763
pLEC,TRUE,TRUE,3,29,0.070154578
pLEC,TRUE,TRUE,3,29,0.302226935
pLEC,TRUE,TRUE,3,30,0.325301205
pLEC,TRUE,TRUE,3,30,0.354239257
pLEC,FALSE,FALSE,3,30,0.005649718
pLEC,FALSE,FALSE,3,31,0.030809859
pLEC,FALSE,FALSE,3,31,0.006030151
pLEC,FALSE,FALSE,3,31,0.003996004
pLEC,FALSE,FALSE,3,32,0.015488867
pLEC,FALSE,FALSE,3,32,0.006294964
pLEC,FALSE,FALSE,3,32,0.005560704
pLEC,FALSE,FALSE,3,33,0.02340824
pLEC,FALSE,FALSE,3,33,0.01384083
pLEC,FALSE,TRUE,3,33,0.012687428
pLEC,FALSE,TRUE,3,34,0.00780379
pLEC,FALSE,TRUE,3,34,0.004576659
pLEC,FALSE,TRUE,3,34,0.016497462
pLEC,FALSE,TRUE,3,35,0.012765957
pLEC,FALSE,TRUE,3,35,0.011976048
pLEC,FALSE,TRUE,3,35,0.008641975
pLEC,FALSE,TRUE,3,36,0.026570048
pLEC,FALSE,TRUE,3,36,0.004651163
pLEC,TRUE,TRUE,4,36,0.048780488
pLEC,TRUE,TRUE,4,37,0.022900763
pLEC,TRUE,TRUE,4,37,0.043062201
pLEC,TRUE,TRUE,4,37,0.068571429
pLEC,TRUE,TRUE,4,38,0.014545455
pLEC,TRUE,TRUE,4,38,0.118012422
pLEC,TRUE,TRUE,4,38,0.023178808
pLEC,TRUE,TRUE,4,39,0.046728972
pLEC,TRUE,TRUE,4,39,0.050925926
pLEC,FALSE,TRUE,4,39,0
pLEC,FALSE,TRUE,4,40,0
pLEC,FALSE,TRUE,4,40,0
pLEC,FALSE,TRUE,4,40,0
pLEC,FALSE,TRUE,4,41,0
pLEC,FALSE,TRUE,4,41,0
pLEC,FALSE,TRUE,4,41,0
pLEC,FALSE,TRUE,4,42,0
pLEC,FALSE,TRUE,4,42,0
pLEC,TRUE,FALSE,4,42,0.024752475
pLEC,TRUE,FALSE,4,43,0.028901734
pLEC,TRUE,FALSE,4,43,0.016129032
pLEC,TRUE,FALSE,4,43,0.049242424
pLEC,TRUE,FALSE,4,43,0.024875622
pLEC,TRUE,FALSE,4,44,0.035830619
pLEC,TRUE,FALSE,4,44,0.051835853
pLEC,TRUE,FALSE,4,44,0.036231884
pLEC,TRUE,FALSE,4,45,0.035812672
pLEC,FALSE,FALSE,4,45,0
pLEC,FALSE,FALSE,4,45,0
pLEC,FALSE,FALSE,4,46,0.001949318
pLEC,FALSE,FALSE,4,46,0
pLEC,FALSE,FALSE,4,46,0
pLEC,FALSE,FALSE,4,47,0.0041841
pLEC,FALSE,FALSE,4,47,0
pLEC,FALSE,FALSE,4,47,0
pLEC,FALSE,FALSE,4,48,0
MS1,TRUE,TRUE,4,48,0.01
MS1,TRUE,TRUE,4,48,0
MS1,TRUE,TRUE,4,49,0.003412969
MS1,TRUE,TRUE,4,49,0.002923977
MS1,TRUE,TRUE,4,49,0.005434783
MS1,TRUE,TRUE,4,50,0.00856531
MS1,TRUE,TRUE,4,50,0.005934718
MS1,TRUE,TRUE,4,50,0.007537688
MS1,TRUE,TRUE,4,51,0.001893939
MS1,FALSE,TRUE,4,51,0
MS1,FALSE,TRUE,4,51,0
MS1,FALSE,TRUE,4,52,0
MS1,FALSE,TRUE,4,52,0
MS1,FALSE,TRUE,4,52,0
MS1,FALSE,TRUE,4,53,0
MS1,FALSE,TRUE,4,53,0
MS1,FALSE,TRUE,4,53,0
MS1,FALSE,TRUE,4,54,0
MS1,TRUE,FALSE,4,54,0.030674847
MS1,TRUE,FALSE,4,54,0.008163265
MS1,TRUE,FALSE,4,55,0
MS1,TRUE,FALSE,4,55,0.008032129
MS1,TRUE,FALSE,4,55,0.015037594
MS1,TRUE,FALSE,4,56,0.008450704
MS1,TRUE,FALSE,4,56,0
MS1,TRUE,FALSE,4,56,0
MS1,TRUE,FALSE,4,57,0.005509642
MS1,FALSE,FALSE,4,57,0
MS1,FALSE,FALSE,4,57,0
MS1,FALSE,FALSE,4,58,0
MS1,FALSE,FALSE,4,58,0
MS1,FALSE,FALSE,4,58,0
MS1,FALSE,FALSE,4,59,0
MS1,FALSE,FALSE,4,59,0
MS1,FALSE,FALSE,4,59,0
MS1,FALSE,FALSE,4,60,0.00308642
imLEC,TRUE,FALSE,4,60,0.002141328
imLEC,TRUE,FALSE,4,60,0.003407155
imLEC,TRUE,FALSE,4,61,0.001834862
imLEC,TRUE,FALSE,4,61,0.001785714
imLEC,TRUE,FALSE,4,61,0.002898551
imLEC,TRUE,FALSE,4,62,0
imLEC,TRUE,FALSE,4,62,0
imLEC,TRUE,FALSE,4,62,0
imLEC,TRUE,FALSE,4,63,0.004385965
imLEC,FALSE,FALSE,4,63,0
imLEC,FALSE,FALSE,4,63,0
imLEC,FALSE,FALSE,4,64,0.001655629
imLEC,FALSE,FALSE,4,64,0
imLEC,FALSE,FALSE,4,64,0
imLEC,FALSE,FALSE,4,65,0
imLEC,FALSE,FALSE,4,65,0
imLEC,FALSE,FALSE,4,65,0
imLEC,FALSE,FALSE,4,66,0
imLEC,TRUE,TRUE,4,66,0.003241491
imLEC,TRUE,TRUE,4,66,0.001818182
imLEC,TRUE,TRUE,4,67,0.002074689
imLEC,TRUE,TRUE,4,67,0.002222222
imLEC,TRUE,TRUE,4,67,0
imLEC,TRUE,TRUE,4,68,0
imLEC,TRUE,TRUE,4,68,0.003824092
imLEC,TRUE,TRUE,4,68,0.005089059
imLEC,TRUE,TRUE,4,69,0
imLEC,FALSE,TRUE,4,69,0
imLEC,FALSE,TRUE,4,69,0
imLEC,FALSE,TRUE,4,70,0
imLEC,FALSE,TRUE,4,70,0
imLEC,FALSE,TRUE,4,70,0.008658009
imLEC,FALSE,TRUE,4,71,0
imLEC,FALSE,TRUE,4,71,0
imLEC,FALSE,TRUE,4,71,0
imLEC,FALSE,TRUE,5,72,0
pLEC,TRUE,FALSE,5,72,0.053140097
pLEC,TRUE,FALSE,5,72,0.048128342
pLEC,TRUE,FALSE,5,73,0.022687609
pLEC,TRUE,FALSE,5,73,0.041269841
pLEC,TRUE,FALSE,5,73,0.023323615
pLEC,TRUE,FALSE,5,74,0.012121212
pLEC,TRUE,FALSE,5,74,0.010666667
pLEC,TRUE,FALSE,5,74,0.009831461
pLEC,TRUE,FALSE,5,75,0.008571429
pLEC,FALSE,FALSE,5,75,0
pLEC,FALSE,FALSE,5,75,0
pLEC,FALSE,FALSE,5,76,0
pLEC,FALSE,FALSE,5,76,0
pLEC,FALSE,FALSE,5,76,0
pLEC,FALSE,FALSE,5,77,0.00136612
pLEC,FALSE,FALSE,5,77,0
pLEC,FALSE,FALSE,5,77,0
pLEC,FALSE,FALSE,5,78,0
pLEC,FALSE,TRUE,5,78,0
pLEC,FALSE,TRUE,5,78,0.001362398
pLEC,FALSE,TRUE,5,79,0
pLEC,FALSE,TRUE,5,79,0
pLEC,FALSE,TRUE,5,79,0
pLEC,FALSE,TRUE,5,80,0
pLEC,FALSE,TRUE,5,80,0
pLEC,FALSE,TRUE,5,80,0
pLEC,TRUE,TRUE,5,81,0.030413625
pLEC,TRUE,TRUE,5,81,0.007662835
pLEC,TRUE,TRUE,5,81,0.015757576
pLEC,TRUE,TRUE,5,82,0.030368764
pLEC,TRUE,TRUE,5,82,0.014099783
pLEC,TRUE,TRUE,5,82,0.030818278
pLEC,TRUE,TRUE,5,83,0.011933174
pLEC,TRUE,TRUE,5,83,0.011737089
pLEC,TRUE,TRUE,5,83,0.008303677
MS1,TRUE,FALSE,5,84,0.014492754
MS1,TRUE,FALSE,5,84,0.01011378
MS1,TRUE,FALSE,5,84,0.019607843
MS1,TRUE,FALSE,5,85,0.021148036
MS1,TRUE,FALSE,5,85,0.027603513
MS1,TRUE,FALSE,5,85,0.013736264
MS1,TRUE,FALSE,5,86,0.022427441
MS1,TRUE,FALSE,5,86,0.007159905
MS1,TRUE,FALSE,5,86,0.004962779
MS1,FALSE,FALSE,5,87,0.002673797
MS1,FALSE,FALSE,5,87,0
MS1,FALSE,FALSE,5,87,0
MS1,FALSE,FALSE,5,88,0.001347709
MS1,FALSE,FALSE,5,88,0
MS1,FALSE,FALSE,5,88,0
MS1,FALSE,FALSE,5,89,0.00154321
MS1,FALSE,FALSE,5,89,0
MS1,FALSE,FALSE,5,89,0.002631579
MS1,TRUE,TRUE,5,90,0.008830022
MS1,TRUE,TRUE,5,90,0.01880141
MS1,TRUE,TRUE,5,90,0.007575758
MS1,TRUE,TRUE,5,91,0.023227384
MS1,TRUE,TRUE,5,91,0.012896825
MS1,TRUE,TRUE,5,91,0.033415842
MS1,TRUE,TRUE,5,92,0.016241299
MS1,TRUE,TRUE,5,92,0.028361345
MS1,TRUE,TRUE,5,92,0.018404908
MS1,FALSE,TRUE,5,93,0
MS1,FALSE,TRUE,5,93,0
MS1,FALSE,TRUE,5,93,0
MS1,FALSE,TRUE,5,94,0
MS1,FALSE,TRUE,5,94,0
MS1,FALSE,TRUE,5,94,0
MS1,FALSE,TRUE,5,95,0
MS1,FALSE,TRUE,5,95,0
MS1,FALSE,TRUE,5,95,0
imLEC,TRUE,FALSE,5,96,0.02
imLEC,TRUE,FALSE,5,96,0.02237927
imLEC,TRUE,FALSE,5,96,0.036793693
imLEC,TRUE,FALSE,5,97,0.011627907
imLEC,TRUE,FALSE,5,97,0.01703163
imLEC,TRUE,FALSE,5,97,0.01142132
imLEC,TRUE,FALSE,5,98,0.012315271
imLEC,TRUE,FALSE,5,98,0.007490637
imLEC,TRUE,FALSE,5,98,0.0125
imLEC,FALSE,FALSE,5,99,0
imLEC,FALSE,FALSE,5,99,0
imLEC,FALSE,FALSE,5,99,0.001536098
imLEC,FALSE,FALSE,5,100,0
imLEC,FALSE,FALSE,5,100,0
imLEC,FALSE,FALSE,5,100,0
imLEC,FALSE,FALSE,5,101,0
imLEC,FALSE,FALSE,5,101,0
imLEC,FALSE,FALSE,5,101,0
imLEC,TRUE,TRUE,5,102,0.029787234
imLEC,TRUE,TRUE,5,102,0.015873016
imLEC,TRUE,TRUE,5,102,0.020757021
imLEC,TRUE,TRUE,5,103,0.017348203
imLEC,TRUE,TRUE,5,103,0.02173913
imLEC,TRUE,TRUE,5,103,0.02987013
imLEC,TRUE,TRUE,5,104,0.01372549
imLEC,TRUE,TRUE,5,104,0.028846154
imLEC,TRUE,TRUE,5,104,0.010695187
imLEC,FALSE,TRUE,5,105,0
imLEC,FALSE,TRUE,5,105,0.003963012
imLEC,FALSE,TRUE,5,105,0
imLEC,FALSE,TRUE,5,106,0
imLEC,FALSE,TRUE,5,106,0
imLEC,FALSE,TRUE,5,106,0
imLEC,FALSE,TRUE,5,107,0
imLEC,FALSE,TRUE,5,107,0
imLEC,FALSE,TRUE,5,107,0
pLEC,TRUE,TRUE,6,108,0.184863524
pLEC,TRUE,TRUE,6,108,0.146254459
pLEC,TRUE,TRUE,6,108,0.134986226
pLEC,TRUE,TRUE,6,109,0.058080808
pLEC,TRUE,TRUE,6,109,0.058411215
pLEC,TRUE,TRUE,6,109,0.067375887
pLEC,FALSE,TRUE,6,110,0.008152174
pLEC,FALSE,TRUE,6,110,0.003989362
pLEC,FALSE,TRUE,6,110,0
pLEC,FALSE,TRUE,6,111,0.003273322
pLEC,FALSE,TRUE,6,111,0.003262643
pLEC,FALSE,TRUE,6,111,0.003164557
pLEC,FALSE,TRUE,6,112,0
pLEC,FALSE,TRUE,6,112,0.002283105
pLEC,FALSE,TRUE,6,112,0.001150748
pLEC,FALSE,FALSE,6,113,0
pLEC,FALSE,FALSE,6,113,0.003250271
pLEC,FALSE,FALSE,6,113,0.001123596
pLEC,FALSE,FALSE,6,114,0
pLEC,FALSE,FALSE,6,114,0
pLEC,FALSE,FALSE,6,114,0
pLEC,FALSE,FALSE,6,115,0
pLEC,FALSE,FALSE,6,115,0.001383126
pLEC,FALSE,FALSE,6,115,0
pLEC,TRUE,FALSE,6,116,0.091103966
pLEC,TRUE,FALSE,6,116,0.089055794
pLEC,TRUE,FALSE,6,116,0.075776398
pLEC,TRUE,FALSE,6,117,0.037214886
pLEC,TRUE,FALSE,6,117,0.029262087
pLEC,TRUE,FALSE,6,117,0.062084257
pLEC,TRUE,FALSE,6,118,0.136317396
pLEC,TRUE,FALSE,6,118,0.12084063
pLEC,TRUE,FALSE,6,118,0.125343092
MS1,TRUE,TRUE,6,119,0.00397351
MS1,TRUE,TRUE,6,119,0
MS1,TRUE,TRUE,6,119,0.003412969
MS1,TRUE,TRUE,6,120,0.013471503
MS1,TRUE,TRUE,6,120,0.008040201
MS1,TRUE,TRUE,6,120,0.012486993
MS1,TRUE,TRUE,6,121,0
MS1,TRUE,TRUE,6,121,0.002094241
MS1,TRUE,TRUE,6,121,0.001094092
MS1,FALSE,TRUE,6,122,0.002518892
MS1,FALSE,TRUE,6,122,0
MS1,FALSE,TRUE,6,122,0
MS1,FALSE,TRUE,6,123,0
MS1,FALSE,TRUE,6,123,0
MS1,FALSE,TRUE,6,123,0
MS1,FALSE,TRUE,6,124,0
MS1,FALSE,TRUE,6,124,0
MS1,FALSE,TRUE,6,124,0.00135318
MS1,TRUE,FALSE,6,125,0.006698565
MS1,TRUE,FALSE,6,125,0.004793864
MS1,TRUE,FALSE,6,125,0.001027749
MS1,TRUE,FALSE,6,126,0.003466205
MS1,TRUE,FALSE,6,126,0.01174743
MS1,TRUE,FALSE,6,126,0.001497006
MS1,TRUE,FALSE,6,127,0.001183432
MS1,TRUE,FALSE,6,127,0
MS1,TRUE,FALSE,6,127,0.001344086
MS1,FALSE,FALSE,6,128,0
MS1,FALSE,FALSE,6,128,0
MS1,FALSE,FALSE,6,128,0
MS1,FALSE,FALSE,6,129,0
MS1,FALSE,FALSE,6,129,0
MS1,FALSE,FALSE,6,129,0
MS1,FALSE,FALSE,6,130,0
MS1,FALSE,FALSE,6,130,0
MS1,FALSE,FALSE,6,130,0.001096491
imLEC,TRUE,TRUE,6,131,0.011666667
imLEC,TRUE,TRUE,6,131,0.002998501
imLEC,TRUE,TRUE,6,131,0.007117438
imLEC,TRUE,TRUE,6,132,0.007949126
imLEC,TRUE,TRUE,6,132,0.009259259
imLEC,TRUE,TRUE,6,132,0.007782101
imLEC,TRUE,TRUE,6,133,0.007002801
imLEC,TRUE,TRUE,6,133,0.006377551
imLEC,TRUE,TRUE,6,133,0.005830904
imLEC,TRUE,TRUE,6,134,0.010787487
imLEC,TRUE,TRUE,6,134,0.024731183
imLEC,TRUE,TRUE,6,134,0.009879254
imLEC,TRUE,TRUE,6,135,0.089828269
imLEC,TRUE,TRUE,6,135,0.108606557
imLEC,TRUE,TRUE,6,135,0.082146769
imLEC,TRUE,TRUE,6,136,0.028815368
imLEC,TRUE,TRUE,6,136,0.02688728
imLEC,FALSE,FALSE,6,137,0.00173913
imLEC,FALSE,FALSE,6,137,0
imLEC,FALSE,FALSE,6,137,0.007751938
imLEC,FALSE,FALSE,6,138,0
imLEC,FALSE,FALSE,6,138,0
imLEC,FALSE,FALSE,6,138,0.001054852
imLEC,FALSE,FALSE,6,139,0
imLEC,FALSE,FALSE,6,139,0
imLEC,FALSE,FALSE,6,139,0
pLEC,TRUE,FALSE,7,140,0.015384615
pLEC,TRUE,FALSE,7,140,0.025
pLEC,TRUE,FALSE,7,140,0.073394495
pLEC,TRUE,FALSE,7,141,0.002314815
pLEC,TRUE,FALSE,7,141,0.00255102
pLEC,TRUE,FALSE,7,141,0.004219409
pLEC,TRUE,FALSE,7,142,0
pLEC,TRUE,FALSE,7,142,0
pLEC,TRUE,FALSE,7,142,0
pLEC,TRUE,TRUE,7,143,0.013129103
pLEC,TRUE,TRUE,7,143,0.010845987
pLEC,TRUE,TRUE,7,143,0.036259542
pLEC,TRUE,TRUE,7,144,0.024017467
pLEC,TRUE,TRUE,7,144,0.022099448
pLEC,TRUE,TRUE,7,144,0.058823529
pLEC,TRUE,TRUE,7,145,0.016806723
pLEC,TRUE,TRUE,7,145,0.008264463
pLEC,TRUE,TRUE,7,145,0.01986755
pLEC,FALSE,FALSE,7,146,0
pLEC,FALSE,FALSE,7,146,0.00297619
pLEC,FALSE,FALSE,7,146,0
pLEC,FALSE,FALSE,7,147,0
pLEC,FALSE,FALSE,7,147,0
pLEC,FALSE,FALSE,7,147,0
pLEC,FALSE,FALSE,7,148,0
pLEC,FALSE,FALSE,7,148,0
pLEC,FALSE,FALSE,7,148,0.004366812
pLEC,FALSE,TRUE,7,149,0.005952381
pLEC,FALSE,TRUE,7,149,0
pLEC,FALSE,TRUE,7,149,0
pLEC,FALSE,TRUE,7,150,0
pLEC,FALSE,TRUE,7,150,0.006097561
pLEC,FALSE,TRUE,7,150,0
pLEC,FALSE,TRUE,7,151,0
pLEC,FALSE,TRUE,7,151,0.003039514
pLEC,FALSE,TRUE,7,151,0
